<?xml version="1.0" encoding="utf-8"?>
<!-- Generator: Adobe Illustrator 24.2.3, SVG Export Plug-In . SVG Version: 6.00 Build 0)  -->
<svg version="1.1" id="Camada_1" xmlns="http://www.w3.org/2000/svg" xmlns:xlink="http://www.w3.org/1999/xlink" x="0px" y="0px"
	 viewBox="0 0 994 284.2" style="enable-background:new 0 0 994 284.2;" xml:space="preserve">
<style type="text/css">
	.st0{fill:#7E828F;}
</style>
<path class="st0" d="M35.5,77.4c0,0,23,94.1,26.6,109.4c4.3,17.8,12,24.4,34.2,20l14.3-58.3c3.6-14.5,6.1-24.8,8.4-39.6h0.4
	c1.6,14.9,4,25.1,7,39.6c0,0,5.8,26.5,8.8,40.4s11.3,22.7,33.1,17.9l34.2-129.4H175l-11.7,55.9c-3.1,16.3-6,29-8.2,43.9h-0.4
	c-2-14.7-4.5-27-7.7-42.8l-12.1-57h-28.7l-13,55.6c-3.7,16.9-7.1,30.5-9.3,44.9h-0.4c-2.2-13.5-5.2-30.7-8.5-47
	c0,0-7.7-39.7-10.4-53.4L35.5,77.4L35.5,77.4z M298.5,77.4v129.4h26.3V77.4H298.5L298.5,77.4z M668.4,77.4v95.4
	c0,13.2,2.5,22.4,7.8,28c4.6,4.9,12.3,8.1,21.4,8.1c7.8,0,15.4-1.5,19-2.8l-0.3-20.5c-2.7,0.7-5.8,1.2-10,1.2
	c-8.9,0-11.9-5.7-11.9-17.5v-36.5h22.9v-24.7h-22.9V77.5L668.4,77.4L668.4,77.4z M239.8,107.4c-16.3,0-29.3,4.6-36.3,8.7l5.2,17.7
	c6.5-4.1,16.8-7.4,26.5-7.4c16.1,0,18.8,9.1,18.8,15v1.4c-35.2-0.1-57.4,12.1-57.4,36.9c0,15.1,11.3,29.3,31,29.3
	c12.1,0,22.2-4.8,28.3-12.6h0.6c0,0,4,16.8,26.1,10.4c-1.2-7-1.5-14.4-1.5-23.4v-34.6C281,126.8,271.6,107.4,239.8,107.4
	L239.8,107.4z M396.9,107.4c-16.4,0-23.8,8.3-28.3,15.4h-0.4v-13.2h-25.1v97.2h26.4v-57c0-2.7,0.3-5.5,1.2-8
	c2.2-5.7,7.5-12.5,16-12.5c10.7,0,15.6,9,15.6,22v55.4h26.4v-57.6c0-2.6,0.3-5.6,1.1-7.9c2.2-6.5,7.9-11.8,15.8-11.8
	c10.8,0,16,8.9,16,24.1v53.2H488v-57.2c0-30.2-15.3-42.1-32.6-42.1c-7.7,0-13.7,1.9-19.2,5.3c-4.6,2.8-8.7,6.8-12.3,12.1h-0.4
	C419.5,114.3,409.7,107.4,396.9,107.4L396.9,107.4z M541.9,107.4c-16.3,0-29.3,4.6-36.3,8.7l5.2,17.7c6.5-4.1,16.8-7.4,26.5-7.4
	c16.1,0,18.8,9.1,18.8,15v1.4c-35.2-0.1-57.4,12.1-57.4,36.9c0,15.1,11.3,29.3,31,29.3c12.1,0,22.2-4.8,28.3-12.6h0.6
	c0,0,4,16.8,26.1,10.4c-1.2-7-1.5-14.4-1.5-23.4v-34.6C583.1,126.8,573.7,107.4,541.9,107.4L541.9,107.4z M651.6,107.4
	c-10.1,0-21.6,6.5-26.4,20.5h-0.7v-18.3h-23.8v97.2h27.1V157c0-2.7,0.2-5,0.6-7.2c2-10.4,10-17.1,21.4-17.1c3.1,0,5.4,0.3,7.8,0.7
	V108C655.5,107.6,654.1,107.4,651.6,107.4L651.6,107.4z M254.7,159.9v12.2c0,1.8-0.2,3.6-0.7,5.3c-2,6.7-9,12.4-17.7,12.4
	c-7.3,0-13-4.1-13-12.9C223.3,163.5,238,159.9,254.7,159.9L254.7,159.9z M556.9,159.9v12.2c0,1.8-0.2,3.6-0.7,5.3
	c-2,6.7-9,12.4-17.7,12.4c-7.3,0-13-4.1-13-12.9C525.4,163.5,540.1,159.9,556.9,159.9L556.9,159.9z"/>
<path class="st0" d="M859.2,30.6c-8.5,0-15.2,4.7-15.2,10.5l5.1,58.3c0.6,3.5,4.9,6.2,10.1,6.2c5.2,0,9.5-2.7,10.1-6.2l5.2-58.3
	C874.5,35.4,867.7,30.6,859.2,30.6L859.2,30.6z M775.3,77.4c-4.4,0.1-9.4,3.4-12.6,9c-4.3,7.3-3.5,15.6,1.5,18.4l53.1,24.7
	c3.3,1.2,7.8-1.1,10.4-5.6l0,0c2.6-4.5,2.4-9.6-0.3-11.8l-47.9-33.6C778.2,77.7,776.8,77.4,775.3,77.4L775.3,77.4z M943.2,77.4
	c-1.5,0-2.9,0.3-4.1,1l-48,33.7c-2.7,2.3-2.9,7.3-0.3,11.8l0,0c2.6,4.5,7.1,6.8,10.4,5.6l53.1-24.7c5-2.9,5.7-11.1,1.5-18.4
	C952.6,80.9,947.6,77.5,943.2,77.4L943.2,77.4z M819.2,154.4c-0.7,0-1.4,0.1-2,0.3l-53.1,24.7c-5,2.9-5.7,11.1-1.5,18.5
	c4.2,7.3,11.7,10.8,16.7,7.9l47.9-33.6c2.8-2.3,3-7.4,0.3-11.9l0,0C825.6,156.6,822.2,154.4,819.2,154.4L819.2,154.4z M899.2,154.4
	c-3,0-6.3,2.3-8.5,6l0,0c-2.6,4.5-2.4,9.6,0.3,11.9l47.9,33.6c5,2.9,12.5-0.6,16.7-7.9c4.2-7.4,3.5-15.6-1.5-18.5L901,154.8
	C900.6,154.5,899.9,154.4,899.2,154.4L899.2,154.4z M859.2,178.5c-5.2,0-9.5,2.7-10.1,6.2l-5.1,58.4c0,5.8,6.7,10.5,15.2,10.5
	s15.2-4.7,15.2-10.5l-5.2-58.3C868.7,181.2,864.5,178.5,859.2,178.5L859.2,178.5L859.2,178.5z"/>
</svg>
